{
    "nativeSymbol": "SGB",
    "nativeFtsoDecimals": 5,
    "wrappedNativeName": "Wrapped Songbird",
    "wrappedNativeSymbol": "WSGB",
    "stateConnectorAddress": "0x1000000000000000000000000000000000000001",
    "flareDaemonAddress": "0x1000000000000000000000000000000000000002",
    "priceSubmitterAddress": "0x1000000000000000000000000000000000000003",
    "deployerPrivateKey": "<use .env: DEPLOYER_PRIVATE_KEY>",
    "genesisGovernancePrivateKey": "<use .env: GENESIS_GOVERNANCE_PRIVATE_KEY>",
    "governancePrivateKey": "<use .env: GOVERNANCE_PRIVATE_KEY>",
    "governancePublicKey": "<use .env: GOVERNANCE_PUBLIC_KEY>",
    "burnAddress": "0x0100000000000000000000000000000000000000",
    "totalNativeSupplyNAT": 15000000000,
    "totalFoundationSupplyNAT": 5596817223,
    "scheduledInflationPercentageBIPS": [1000, 800, 600],
    "rewardEpochDurationSeconds": 604800,
    "revealEpochDurationSeconds": 90,
    "priceEpochDurationSeconds": 180,
    "rewardEpochsStartDelayPriceEpochs": 720,
    "votePowerIntervalFraction": 4,
    "defaultVoterWhitelistSize": 100,
    "flareDaemonGasExceededHoldoffBlocks": 30,
    "maxVotePowerNatThresholdFraction": 10,
    "maxVotePowerAssetThresholdFraction": 10,
    "lowAssetThresholdUSDDec5": 5000000000,
    "highAssetThresholdUSDDec5": 500000000000,
    "highAssetTurnoutThresholdBIPS": 6000,
    "lowNatTurnoutThresholdBIPS": 500,
    "priceDeviationThresholdBIPS": 1500,
    "trustedAddresses": [
        "0x021305Bb75B9D7F720fD328d137114C930917B62",
        "0x651ccEBfA2C5aa1e6d9C6180d91079F120314080",
        "0x96b83D3F73E44c9A96388CF1D116595551dAeB5A"
    ],
    "rewardFeePercentageUpdateOffsetEpochs": 3,
    "defaultRewardFeePercentageBIPS": 2000,
    "ftsoRewardExpiryOffsetDays": 90,
    "dataAvailabilityRewardExpiryOffsetEpochs": 26,
    "initialWnatPriceUSDDec5": 0,
    "priceEpochCyclicBufferSize": 200,
    "inflationReceivers" : ["FtsoRewardManager"],
    "inflationSharingBIPS": [10000],
    "inflationTopUpTypes": [0],
    "inflationTopUpFactorsx100": [300],
    "inflationGasLimit": 2000000,
    "ftsoManagerGasLimit": 40000000,
    "deployDistributionContract": false,
    "deployDummyXAssetTokensAndMinters": false,
    "deployNATFtso": false,
    "NATMultiAssets": [],
    "assets": [
        {
            "assetSymbol": "XRP",
            "assetDecimals": 6,
            "ftsoDecimals": 5,
            "xAssetName": "sAsset XRP",
            "xAssetSymbol": "sXRP",
            "dummyAssetMinterMax": 7000000000,
            "initialPriceUSDDec5": 0
        },
        {
            "assetSymbol": "LTC",
            "assetDecimals": 8,
            "ftsoDecimals": 5,
            "xAssetName": "sAsset Litecoin",
            "xAssetSymbol": "sLTC",
            "dummyAssetMinterMax": 4000000000,
            "initialPriceUSDDec5": 0
        },
        {
            "assetSymbol": "XLM",
            "assetDecimals": 6,
            "ftsoDecimals": 5,
            "xAssetName": "sAsset XLM (Lumen)",
            "xAssetSymbol": "sXLM",
            "dummyAssetMinterMax": 7000000000,
            "initialPriceUSDDec5": 0
        },
        {
            "assetSymbol": "DOGE",
            "assetDecimals": 8,
            "ftsoDecimals": 5,
            "xAssetName": "sAsset Dogecoin",
            "xAssetSymbol": "sDOGE",
            "dummyAssetMinterMax": 13000000000000,
            "initialPriceUSDDec5": 0
        },
        {
            "assetSymbol": "ADA",
            "assetDecimals": 8,
            "ftsoDecimals": 5,
            "xAssetName": "sAsset ADA (Cardano)",
            "xAssetSymbol": "sADA",
            "dummyAssetMinterMax": 45000000000,
            "initialPriceUSDDec5": 0
        },
        {
            "assetSymbol": "ALGO",
            "assetDecimals": 8,
            "ftsoDecimals": 5,
            "xAssetName": "sAsset Algorand",
            "xAssetSymbol": "sALGO",
            "dummyAssetMinterMax": 5000000000,
            "initialPriceUSDDec5": 0
        },
        {
            "assetSymbol": "BCH",
            "assetDecimals": 8,
            "ftsoDecimals": 5,
            "xAssetName": "sAsset Bitcoin Cash",
            "xAssetSymbol": "sBCH",
            "dummyAssetMinterMax": 21000000000,
            "initialPriceUSDDec5": 0
        },
        {
            "assetSymbol": "DGB",
            "assetDecimals": 8,
            "ftsoDecimals": 5,
            "xAssetName": "sAsset Digibyte",
            "xAssetSymbol": "sDGB",
            "dummyAssetMinterMax": 10000000000,
            "initialPriceUSDDec5": 0
        },
        {
            "assetSymbol": "BTC",
            "assetDecimals": 6,
            "ftsoDecimals": 5,
            "xAssetName": "sAsset BTC",
            "xAssetSymbol": "sBTC",
            "dummyAssetMinterMax": 7000000000,
            "initialPriceUSDDec5": 0
        },
        {
            "assetSymbol": "ETH",
            "assetDecimals": 18,
            "ftsoDecimals": 5,
            "xAssetName": "sAsset ETH",
            "xAssetSymbol": "sETH",
            "dummyAssetMinterMax": 10000000000,
            "initialPriceUSDDec5": 0
        },
        {
            "assetSymbol": "FIL",
            "assetDecimals": 18,
            "ftsoDecimals": 5,
            "xAssetName": "xAsset FIL",
            "xAssetSymbol": "sFIL",            
            "dummyAssetMinterMax": 10000000000,
            "initialPriceUSDDec5": 0
        }
    ]
}
