[
  {
    "name": "StateConnector",
    "contractName": "StateConnector.sol",
    "address": "0x1000000000000000000000000000000000000001"
  },
  {
    "name": "FlareDaemon",
    "contractName": "FlareDaemon.sol",
    "address": "0x1000000000000000000000000000000000000002"
  },
  {
    "name": "FtsoManager",
    "contractName": "FtsoManager.sol",
    "address": "0xbfA12e4E1411B62EdA8B035d71735667422A6A9e"
  },
  {
    "name": "WNat",
    "contractName": "WNat.sol",
    "address": "0x02f0826ef6aD107Cfc861152B32B52fD11BaB9ED"
  },
  {
    "name": "InflationAllocation",
    "contractName": "InflationAllocation.sol",
    "address": "0x039314Fc0EE5552d868837517580444948388387"
  },
  {
    "name": "Inflation",
    "contractName": "Inflation.sol",
    "address": "0x87E80E90EACA1d458dfdf60a9d697e7E83aB02b2"
  },
  {
    "name": "Supply",
    "contractName": "Supply.sol",
    "address": "0x5059bA6272Fa598efAaCC9b6FCeFef7366980aD7"
  },
  {
    "name": "FtsoRewardManager",
    "contractName": "FtsoRewardManager.sol",
    "address": "0xc5738334b972745067fFa666040fdeADc66Cb925"
  }
]
